LAB01/simulation/qsim/LAB1.msim.vcd
$comment
	File created using the following command:
		vcd file LAB1.msim.vcd -direction
$end
$date
	Mon Jun 02 15:08:52 2025
$end
$version
	ModelSim Version 10.5b
$end
$timescale
	1ps
$end

$scope module LAB1_vlg_vec_tst $end
$var reg 1 ! AAA $end
$var reg 1 " BBB $end
$var wire 1 # a_c $end
$var wire 1 $ Qx $end
$var wire 1 % Qy $end
$var wire 1 & Qz $end
$var wire 1 ' Sa $end

$scope module i1 $end
$var wire 1 ( gnd $end
$var wire 1 ) vcc $end
$var wire 1 * unknown $end
$var tri1 1 + devclrn $end
$var tri1 1 , devpor $end
$var tri1 1 - devoe $end
$var wire 1 . ~QUARTUS_CREATED_GND~I_combout $end
$var wire 1 / ~QUARTUS_CREATED_UNVM~~busy $end
$var wire 1 0 ~QUARTUS_CREATED_ADC1~~eoc $end
$var wire 1 1 ~QUARTUS_CREATED_ADC2~~eoc $end
$var wire 1 2 Qx~output_o $end
$var wire 1 3 Qy~output_o $end
$var wire 1 4 Qz~output_o $end
$var wire 1 5 Sa~output_o $end
$var wire 1 6 a_c~output_o $end
$var wire 1 7 BBB~input_o $end
$var wire 1 8 BBB~inputclkctrl_outclk $end
$var wire 1 9 AAA~input_o $end
$var wire 1 : inst~0_combout $end
$var wire 1 ; inst~q $end
$var wire 1 < inst3~feeder_combout $end
$var wire 1 = inst3~q $end
$var wire 1 > inst4~0_combout $end
$var wire 1 ? inst4~q $end
$var wire 1 @ inst1~0_combout $end
$var wire 1 A inst1~feeder_combout $end
$var wire 1 B inst1~q $end
$var wire 1 C inst2~0_combout $end
$var wire 1 D inst2~q $end
$var wire 1 E inst12~0_combout $end
$upscope $end
$upscope $end
$enddefinitions $end
#0
$dumpvars
0!
0"
0#
0$
0%
0&
1'
0(
1)
x*
1+
1,
1-
0.
z/
z0
z1
02
03
04
15
06
07
08
09
1:
0;
0<
0=
0>
0?
1@
1A
0B
1C
0D
0E
$end
#10000
1"
17
18
1B
0@
0A
1D
16
1#
0C
#20000
0"
07
08
1;
13
1%
1<
0:
#30000
1"
17
18
0B
1@
1A
#40000
1!
0"
07
19
08
1>
0;
1=
14
03
0%
1&
0<
1:
#50000
1"
17
18
1B
0@
0A
0D
06
1E
0#
1C
05
0'
#60000
0"
07
08
1;
0=
1?
12
04
13
0E
1%
0&
1$
1<
0>
15
1'
#70000
1"
17
18
0B
1@
1A
#80000
0!
0"
07
09
08
1=
0?
02
14
1E
1&
0$
0:
05
0'
#90000
1"
17
18
1B
0@
0A
1D
16
0E
1#
0C
15
1'
#100000
0"
07
08
0;
03
0%
0<
1:
#110000
1"
17
18
0B
1@
1A
#120000
1!
0"
07
19
08
1>
1;
0=
04
13
1%
0&
1<
0:
#130000
1"
17
18
1B
0@
0A
0D
06
0#
1C
#140000
0"
07
08
0;
1=
1?
12
14
03
1E
0%
1&
1$
0<
05
0'
#150000
1"
17
18
0B
1@
1A
#160000
0!
0"
07
09
08
0=
04
0E
0&
0>
15
1'
#170000
1"
17
18
1B
0@
0A
1D
16
1E
1#
0C
05
0'
#180000
0"
07
08
0?
02
0E
0$
1:
15
1'
#190000
1"
17
18
0B
1@
1A
#200000
1!
0"
07
19
08
1>
1;
13
1%
1<
0:
#210000
1"
17
18
1B
0@
0A
0D
06
0#
1C
#220000
0"
07
08
0;
1=
1?
12
14
03
1E
0%
1&
1$
0<
05
0'
#230000
1"
17
18
0B
1@
1A
#240000
0!
0"
07
09
08
0=
04
0E
0&
0>
15
1'
#250000
1"
17
18
1B
0@
0A
1D
16
1E
1#
0C
05
0'
#260000
0"
07
08
0?
02
0E
0$
1:
15
1'
#270000
1"
17
18
0B
1@
1A
#280000
1!
0"
07
19
08
1>
1;
13
1%
1<
0:
#290000
1"
17
18
1B
0@
0A
0D
06
0#
1C
#300000
0"
07
08
0;
1=
1?
12
14
03
1E
0%
1&
1$
0<
05
0'
#310000
1"
17
18
0B
1@
1A
#320000
0!
0"
07
09
08
0=
04
0E
0&
0>
15
1'
#330000
1"
17
18
1B
0@
0A
1D
16
1E
1#
0C
05
0'
#340000
0"
07
08
0?
02
0E
0$
1:
15
1'
#350000
1"
17
18
0B
1@
1A
#360000
1!
0"
07
19
08
1>
1;
13
1%
1<
0:
#370000
1"
17
18
1B
0@
0A
0D
06
0#
1C
#380000
0"
07
08
0;
1=
1?
12
14
03
1E
0%
1&
1$
0<
05
0'
#390000
1"
17
18
0B
1@
1A
#400000
0!
0"
07
09
08
0=
04
0E
0&
0>
15
1'
#410000
1"
17
18
1B
0@
0A
1D
16
1E
1#
0C
05
0'
#420000
0"
07
08
0?
02
0E
0$
1:
15
1'
#430000
1"
17
18
0B
1@
1A
#440000
1!
0"
07
19
08
1>
1;
13
1%
1<
0:
#450000
1"
17
18
1B
0@
0A
0D
06
0#
1C
#460000
0"
07
08
0;
1=
1?
12
14
03
1E
0%
1&
1$
0<
05
0'
#470000
1"
17
18
0B
1@
1A
#480000
0!
0"
07
09
08
0=
04
0E
0&
0>
15
1'
#490000
1"
17
18
1B
0@
0A
1D
16
1E
1#
0C
05
0'
#500000
0"
07
08
0?
02
0E
0$
1:
15
1'
#510000
1"
17
18
0B
1@
1A
#520000
1!
0"
07
19
08
1>
1;
13
1%
1<
0:
#530000
1"
17
18
1B
0@
0A
0D
06
0#
1C
#540000
0"
07
08
0;
1=
1?
12
14
03
1E
0%
1&
1$
0<
05
0'
#550000
1"
17
18
0B
1@
1A
#560000
0!
0"
07
09
08
0=
04
0E
0&
0>
15
1'
#570000
1"
17
18
1B
0@
0A
1D
16
1E
1#
0C
05
0'
#580000
0"
07
08
0?
02
0E
0$
1:
15
1'
#590000
1"
17
18
0B
1@
1A
#600000
1!
0"
07
19
08
1>
1;
13
1%
1<
0:
#610000
1"
17
18
1B
0@
0A
0D
06
0#
1C
#620000
0"
07
08
0;
1=
1?
12
14
03
1E
0%
1&
1$
0<
05
0'
#630000
1"
17
18
0B
1@
1A
#640000
0!
0"
07
09
08
0=
04
0E
0&
0>
15
1'
#650000
1"
17
18
1B
0@
0A
1D
16
1E
1#
0C
05
0'
#660000
0"
07
08
0?
02
0E
0$
1:
15
1'
#670000
1"
17
18
0B
1@
1A
#680000
1!
0"
07
19
08
1>
1;
13
1%
1<
0:
#690000
1"
17
18
1B
0@
0A
0D
06
0#
1C
#700000
0"
07
08
0;
1=
1?
12
14
03
1E
0%
1&
1$
0<
05
0'
#710000
1"
17
18
0B
1@
1A
#720000
0!
0"
07
09
08
0=
04
0E
0&
0>
15
1'
#730000
1"
17
18
1B
0@
0A
1D
16
1E
1#
0C
05
0'
#740000
0"
07
08
0?
02
0E
0$
1:
15
1'
#750000
1"
17
18
0B
1@
1A
#760000
1!
0"
07
19
08
1>
1;
13
1%
1<
0:
#770000
1"
17
18
1B
0@
0A
0D
06
0#
1C
#780000
0"
07
08
0;
1=
1?
12
14
03
1E
0%
1&
1$
0<
05
0'
#790000
1"
17
18
0B
1@
1A
#800000
0!
0"
07
09
08
0=
04
0E
0&
0>
15
1'
#810000
1"
17
18
1B
0@
0A
1D
16
1E
1#
0C
05
0'
#820000
0"
07
08
0?
02
0E
0$
1:
15
1'
#830000
1"
17
18
0B
1@
1A
#840000
1!
0"
07
19
08
1>
1;
13
1%
1<
0:
#850000
1"
17
18
1B
0@
0A
0D
06
0#
1C
#860000
0"
07
08
0;
1=
1?
12
14
03
1E
0%
1&
1$
0<
05
0'
#870000
1"
17
18
0B
1@
1A
#880000
0!
0"
07
09
08
0=
04
0E
0&
0>
15
1'
#890000
1"
17
18
1B
0@
0A
1D
16
1E
1#
0C
05
0'
#900000
0"
07
08
0?
02
0E
0$
1:
15
1'
#910000
1"
17
18
0B
1@
1A
#920000
1!
0"
07
19
08
1>
1;
13
1%
1<
0:
#930000
1"
17
18
1B
0@
0A
0D
06
0#
1C
#940000
0"
07
08
0;
1=
1?
12
14
03
1E
0%
1&
1$
0<
05
0'
#950000
1"
17
18
0B
1@
1A
#960000
0!
0"
07
09
08
0=
04
0E
0&
0>
15
1'
#970000
1"
17
18
1B
0@
0A
1D
16
1E
1#
0C
05
0'
#980000
0"
07
08
0?
02
0E
0$
1:
15
1'
#990000
1"
17
18
0B
1@
1A
