ex_08/simulation/qsim/PROVA01EX08.msim.vcd
$comment
	File created using the following command:
		vcd file PROVA01EX08.msim.vcd -direction
$end
$date
	Wed Jun 04 13:37:36 2025
$end
$version
	ModelSim Version 10.5b
$end
$timescale
	1ps
$end

$scope module prova01ex08_vhd_vec_tst $end
$var wire 1 ! CLOCK $end
$var wire 1 " X0 $end
$var wire 1 # X1 $end
$var wire 1 $ X2 $end
$var wire 1 % X3 $end

$scope module i1 $end
$var wire 1 & gnd $end
$var wire 1 ' vcc $end
$var wire 1 ( unknown $end
$var wire 1 ) devoe $end
$var wire 1 * devclrn $end
$var wire 1 + devpor $end
$var wire 1 , ww_devoe $end
$var wire 1 - ww_devclrn $end
$var wire 1 . ww_devpor $end
$var wire 1 / ww_X0 $end
$var wire 1 0 ww_CLOCK $end
$var wire 1 1 ww_X1 $end
$var wire 1 2 ww_X2 $end
$var wire 1 3 ww_X3 $end
$var wire 1 4 \~QUARTUS_CREATED_ADC1~_CHSEL_bus\ [4] $end
$var wire 1 5 \~QUARTUS_CREATED_ADC1~_CHSEL_bus\ [3] $end
$var wire 1 6 \~QUARTUS_CREATED_ADC1~_CHSEL_bus\ [2] $end
$var wire 1 7 \~QUARTUS_CREATED_ADC1~_CHSEL_bus\ [1] $end
$var wire 1 8 \~QUARTUS_CREATED_ADC1~_CHSEL_bus\ [0] $end
$var wire 1 9 \~QUARTUS_CREATED_ADC2~_CHSEL_bus\ [4] $end
$var wire 1 : \~QUARTUS_CREATED_ADC2~_CHSEL_bus\ [3] $end
$var wire 1 ; \~QUARTUS_CREATED_ADC2~_CHSEL_bus\ [2] $end
$var wire 1 < \~QUARTUS_CREATED_ADC2~_CHSEL_bus\ [1] $end
$var wire 1 = \~QUARTUS_CREATED_ADC2~_CHSEL_bus\ [0] $end
$var wire 1 > \~QUARTUS_CREATED_GND~I_combout\ $end
$var wire 1 ? \~QUARTUS_CREATED_UNVM~~busy\ $end
$var wire 1 @ \~QUARTUS_CREATED_ADC1~~eoc\ $end
$var wire 1 A \~QUARTUS_CREATED_ADC2~~eoc\ $end
$var wire 1 B \X0~output_o\ $end
$var wire 1 C \X1~output_o\ $end
$var wire 1 D \X2~output_o\ $end
$var wire 1 E \X3~output_o\ $end
$var wire 1 F \CLOCK~input_o\ $end
$var wire 1 G \inst~0_combout\ $end
$var wire 1 H \inst~q\ $end
$var wire 1 I \inst1~0_combout\ $end
$var wire 1 J \inst1~q\ $end
$var wire 1 K \inst5|X1~combout\ $end
$var wire 1 L \inst5|X2~0_combout\ $end
$upscope $end
$upscope $end
$enddefinitions $end
#0
$dumpvars
0!
0"
1#
0$
0%
0&
1'
x(
1)
1*
1+
1,
1-
1.
0/
00
11
02
03
0>
z?
z@
zA
0B
1C
0D
0E
0F
1G
0H
0I
0J
1K
0L
04
05
06
07
08
09
0:
0;
0<
0=
$end
#10000
1!
10
1F
1H
0G
1I
1L
1D
12
1$
#20000
0!
00
0F
#30000
1!
10
1F
0H
1J
1G
0K
0L
0D
0C
02
01
0$
0#
#40000
0!
00
0F
#50000
1!
10
1F
1H
0G
0I
1K
1C
11
1#
#60000
0!
00
0F
#70000
1!
10
1F
0H
0J
1G
#80000
0!
00
0F
#90000
1!
10
1F
1H
0G
1I
1L
1D
12
1$
#100000
0!
00
0F
#110000
1!
10
1F
0H
1J
1G
0K
0L
0D
0C
02
01
0$
0#
#120000
0!
00
0F
#130000
1!
10
1F
1H
0G
0I
1K
1C
11
1#
#140000
0!
00
0F
#150000
1!
10
1F
0H
0J
1G
#160000
0!
00
0F
#170000
1!
10
1F
1H
0G
1I
1L
1D
12
1$
#180000
0!
00
0F
#190000
1!
10
1F
0H
1J
1G
0K
0L
0D
0C
02
01
0$
0#
#200000
0!
00
0F
#210000
1!
10
1F
1H
0G
0I
1K
1C
11
1#
#220000
0!
00
0F
#230000
1!
10
1F
0H
0J
1G
#240000
0!
00
0F
#250000
1!
10
1F
1H
0G
1I
1L
1D
12
1$
#260000
0!
00
0F
#270000
1!
10
1F
0H
1J
1G
0K
0L
0D
0C
02
01
0$
0#
#280000
0!
00
0F
#290000
1!
10
1F
1H
0G
0I
1K
1C
11
1#
#300000
0!
00
0F
#310000
1!
10
1F
0H
0J
1G
#320000
0!
00
0F
#330000
1!
10
1F
1H
0G
1I
1L
1D
12
1$
#340000
0!
00
0F
#350000
1!
10
1F
0H
1J
1G
0K
0L
0D
0C
02
01
0$
0#
#360000
0!
00
0F
#370000
1!
10
1F
1H
0G
0I
1K
1C
11
1#
#380000
0!
00
0F
#390000
1!
10
1F
0H
0J
1G
#400000
0!
00
0F
#410000
1!
10
1F
1H
0G
1I
1L
1D
12
1$
#420000
0!
00
0F
#430000
1!
10
1F
0H
1J
1G
0K
0L
0D
0C
02
01
0$
0#
#440000
0!
00
0F
#450000
1!
10
1F
1H
0G
0I
1K
1C
11
1#
#460000
0!
00
0F
#470000
1!
10
1F
0H
0J
1G
#480000
0!
00
0F
#490000
1!
10
1F
1H
0G
1I
1L
1D
12
1$
#500000
0!
00
0F
#510000
1!
10
1F
0H
1J
1G
0K
0L
0D
0C
02
01
0$
0#
#520000
0!
00
0F
#530000
1!
10
1F
1H
0G
0I
1K
1C
11
1#
#540000
0!
00
0F
#550000
1!
10
1F
0H
0J
1G
#560000
0!
00
0F
#570000
1!
10
1F
1H
0G
1I
1L
1D
12
1$
#580000
0!
00
0F
#590000
1!
10
1F
0H
1J
1G
0K
0L
0D
0C
02
01
0$
0#
#600000
0!
00
0F
#610000
1!
10
1F
1H
0G
0I
1K
1C
11
1#
#620000
0!
00
0F
#630000
1!
10
1F
0H
0J
1G
#640000
0!
00
0F
#650000
1!
10
1F
1H
0G
1I
1L
1D
12
1$
#660000
0!
00
0F
#670000
1!
10
1F
0H
1J
1G
0K
0L
0D
0C
02
01
0$
0#
#680000
0!
00
0F
#690000
1!
10
1F
1H
0G
0I
1K
1C
11
1#
#700000
0!
00
0F
#710000
1!
10
1F
0H
0J
1G
#720000
0!
00
0F
#730000
1!
10
1F
1H
0G
1I
1L
1D
12
1$
#740000
0!
00
0F
#750000
1!
10
1F
0H
1J
1G
0K
0L
0D
0C
02
01
0$
0#
#760000
0!
00
0F
#770000
1!
10
1F
1H
0G
0I
1K
1C
11
1#
#780000
0!
00
0F
#790000
1!
10
1F
0H
0J
1G
#800000
0!
00
0F
#810000
1!
10
1F
1H
0G
1I
1L
1D
12
1$
#820000
0!
00
0F
#830000
1!
10
1F
0H
1J
1G
0K
0L
0D
0C
02
01
0$
0#
#840000
0!
00
0F
#850000
1!
10
1F
1H
0G
0I
1K
1C
11
1#
#860000
0!
00
0F
#870000
1!
10
1F
0H
0J
1G
#880000
0!
00
0F
#890000
1!
10
1F
1H
0G
1I
1L
1D
12
1$
#900000
0!
00
0F
#910000
1!
10
1F
0H
1J
1G
0K
0L
0D
0C
02
01
0$
0#
#920000
0!
00
0F
#930000
1!
10
1F
1H
0G
0I
1K
1C
11
1#
#940000
0!
00
0F
#950000
1!
10
1F
0H
0J
1G
#960000
0!
00
0F
#970000
1!
10
1F
1H
0G
1I
1L
1D
12
1$
#980000
0!
00
0F
#990000
1!
10
1F
0H
1J
1G
0K
0L
0D
0C
02
01
0$
0#
