LAB04/simulation/qsim/LAB04_MAQUINA_DE_ESTADO.msim.vcd
$comment
	File created using the following command:
		vcd file LAB04_MAQUINA_DE_ESTADO.msim.vcd -direction
$end
$date
	Thu May 08 14:08:13 2025
$end
$version
	ModelSim Version 10.5b
$end
$timescale
	1ps
$end

$scope module lab04_maquina_de_estado_vhd_vec_tst $end
$var wire 1 ! Clock $end
$var wire 1 " S0 $end
$var wire 1 # S1 $end
$var wire 1 $ S2 $end
$var wire 1 % S3 $end
$var wire 1 & S10 $end
$var wire 1 ' S11 $end
$var wire 1 ( S12 $end
$var wire 1 ) S13 $end
$var wire 1 * S14 $end
$var wire 1 + S15 $end
$var wire 1 , S16 $end

$scope module i1 $end
$var wire 1 - gnd $end
$var wire 1 . vcc $end
$var wire 1 / unknown $end
$var wire 1 0 devoe $end
$var wire 1 1 devclrn $end
$var wire 1 2 devpor $end
$var wire 1 3 ww_devoe $end
$var wire 1 4 ww_devclrn $end
$var wire 1 5 ww_devpor $end
$var wire 1 6 ww_S10 $end
$var wire 1 7 ww_Clock $end
$var wire 1 8 ww_S11 $end
$var wire 1 9 ww_S12 $end
$var wire 1 : ww_S13 $end
$var wire 1 ; ww_S14 $end
$var wire 1 < ww_S15 $end
$var wire 1 = ww_S16 $end
$var wire 1 > ww_S0 $end
$var wire 1 ? ww_S1 $end
$var wire 1 @ ww_S2 $end
$var wire 1 A ww_S3 $end
$var wire 1 B \~QUARTUS_CREATED_ADC1~_CHSEL_bus\ [4] $end
$var wire 1 C \~QUARTUS_CREATED_ADC1~_CHSEL_bus\ [3] $end
$var wire 1 D \~QUARTUS_CREATED_ADC1~_CHSEL_bus\ [2] $end
$var wire 1 E \~QUARTUS_CREATED_ADC1~_CHSEL_bus\ [1] $end
$var wire 1 F \~QUARTUS_CREATED_ADC1~_CHSEL_bus\ [0] $end
$var wire 1 G \~QUARTUS_CREATED_ADC2~_CHSEL_bus\ [4] $end
$var wire 1 H \~QUARTUS_CREATED_ADC2~_CHSEL_bus\ [3] $end
$var wire 1 I \~QUARTUS_CREATED_ADC2~_CHSEL_bus\ [2] $end
$var wire 1 J \~QUARTUS_CREATED_ADC2~_CHSEL_bus\ [1] $end
$var wire 1 K \~QUARTUS_CREATED_ADC2~_CHSEL_bus\ [0] $end
$var wire 1 L \~QUARTUS_CREATED_GND~I_combout\ $end
$var wire 1 M \~QUARTUS_CREATED_UNVM~~busy\ $end
$var wire 1 N \~QUARTUS_CREATED_ADC1~~eoc\ $end
$var wire 1 O \~QUARTUS_CREATED_ADC2~~eoc\ $end
$var wire 1 P \S10~output_o\ $end
$var wire 1 Q \S11~output_o\ $end
$var wire 1 R \S12~output_o\ $end
$var wire 1 S \S13~output_o\ $end
$var wire 1 T \S14~output_o\ $end
$var wire 1 U \S15~output_o\ $end
$var wire 1 V \S16~output_o\ $end
$var wire 1 W \S0~output_o\ $end
$var wire 1 X \S1~output_o\ $end
$var wire 1 Y \S2~output_o\ $end
$var wire 1 Z \S3~output_o\ $end
$var wire 1 [ \Clock~input_o\ $end
$var wire 1 \ \SDFDSFSDFDS|S0~1_combout\ $end
$var wire 1 ] \inst3~0_combout\ $end
$var wire 1 ^ \MUX|K0~combout\ $end
$var wire 1 _ \inst3~q\ $end
$var wire 1 ` \inst~0_combout\ $end
$var wire 1 a \inst~q\ $end
$var wire 1 b \inst1~0_combout\ $end
$var wire 1 c \inst1~q\ $end
$var wire 1 d \inst2~0_combout\ $end
$var wire 1 e \inst2~q\ $end
$var wire 1 f \SDFDSFSDFDS|S0~0_combout\ $end
$var wire 1 g \SDFDSFSDFDS|S1~0_combout\ $end
$var wire 1 h \SDFDSFSDFDS|S2~0_combout\ $end
$var wire 1 i \SDFDSFSDFDS|S3~0_combout\ $end
$var wire 1 j \SDFDSFSDFDS|S4~0_combout\ $end
$var wire 1 k \SDFDSFSDFDS|S5~0_combout\ $end
$var wire 1 l \SDFDSFSDFDS|S6~combout\ $end
$upscope $end
$upscope $end
$enddefinitions $end
#0
$dumpvars
0!
0"
0#
0$
0%
0&
0'
0(
0)
0*
0+
1,
0-
1.
x/
10
11
12
13
14
15
06
07
08
09
0:
0;
0<
1=
0>
0?
0@
0A
0L
zM
zN
zO
0P
0Q
0R
0S
0T
0U
1V
0W
0X
0Y
0Z
0[
0\
1]
1^
0_
0`
0a
0b
0c
0d
0e
0f
0g
0h
0i
0j
0k
1l
0B
0C
0D
0E
0F
0G
0H
0I
0J
0K
$end
#10000
1!
17
1[
1_
1W
1d
1f
1i
1j
1k
1>
1U
1T
1S
1P
1"
1<
1;
1:
16
1+
1*
1)
1&
#20000
0!
07
0[
#30000
1!
17
1[
1e
1X
0]
0^
1`
0d
0f
0i
0l
1?
0V
0S
0P
1#
0=
0:
06
0,
0)
0&
#40000
0!
07
0[
#50000
1!
17
1[
0_
1a
0e
0X
1Z
0W
1]
1^
0`
1b
1d
0j
0k
0?
1A
0>
0U
0T
0#
1%
0"
0<
0;
0+
0*
#60000
0!
07
0[
#70000
1!
17
1[
1_
0a
1c
1e
1X
1Y
0Z
1W
0]
0^
0d
1i
1j
1k
1l
1?
1@
0A
1>
1V
1U
1T
1S
1#
1$
0%
1"
1=
1<
1;
1:
1,
1+
1*
1)
#80000
0!
07
0[
#90000
1!
17
1[
0_
0e
0X
0W
1^
1`
0b
1d
1f
0k
0l
0?
0>
0V
0U
1P
0#
0"
0=
0<
16
0,
0+
1&
#100000
0!
07
0[
#110000
1!
17
1[
1a
0c
1e
1X
0Y
1Z
1b
0d
0f
0j
1?
0@
1A
0T
0P
1#
0$
1%
0;
06
0*
0&
#120000
0!
07
0[
#130000
1!
17
1[
1c
0e
0X
1Y
1\
1d
1g
1h
0i
1l
0?
1@
1V
0S
1R
1Q
0#
1$
1=
0:
19
18
1,
0)
1(
1'
#140000
0!
07
0[
#150000
1!
17
1[
1e
1X
1]
0^
0`
0d
0l
1?
0V
1#
0=
0,
#160000
0!
07
0[
#170000
1!
17
1[
1_
0a
0e
0X
0Z
1W
0]
0\
1^
1`
0b
0h
1j
0?
0A
1>
1T
0R
0#
0%
1"
1;
09
1*
0(
#180000
0!
07
0[
#190000
1!
17
1[
1a
0c
0Y
1Z
1]
1d
0g
0@
1A
0Q
0$
1%
08
0'
#200000
0!
07
0[
#210000
1!
17
1[
1e
1X
0]
1b
0d
1f
1g
0j
1?
0T
1Q
1P
1#
0;
18
16
0*
1'
1&
#220000
0!
07
0[
#230000
1!
17
1[
1c
0e
0X
1Y
1\
1d
0g
1k
0?
1@
1U
0Q
0#
1$
1<
08
1+
0'
#240000
0!
07
0[
#250000
1!
17
1[
1e
1X
1]
0^
0`
0b
0f
1g
1h
1i
0k
1?
0U
1S
1R
1Q
0P
1#
0<
1:
19
18
06
0+
1)
1(
1'
0&
#260000
0!
07
0[
#270000
1!
17
1[
0_
0a
0c
0Y
0Z
0W
0\
1b
0g
0i
1k
0@
0A
0>
1U
0S
0Q
0]
0$
0%
0"
1<
0:
08
1+
0)
0'
#280000
0!
07
0[
#290000
1!
17
1[
1c
1Y
0b
0d
1g
0h
0k
1@
0U
0R
1Q
1$
0<
09
18
0+
0(
1'
#300000
0!
07
0[
#310000
1!
17
1[
0c
0e
0X
0Y
1]
1^
0g
1l
0?
0@
1V
0Q
0#
0$
1=
08
1,
0'
#320000
0!
07
0[
#330000
1!
17
1[
1_
1W
1d
1f
1i
1j
1k
1>
1U
1T
1S
1P
1"
1<
1;
1:
16
1+
1*
1)
1&
#340000
0!
07
0[
#350000
1!
17
1[
1e
1X
0]
0^
1`
0d
0f
0i
0l
1?
0V
0S
0P
1#
0=
0:
06
0,
0)
0&
#360000
0!
07
0[
#370000
1!
17
1[
0_
1a
0e
0X
1Z
0W
1]
1^
0`
1b
1d
0j
0k
0?
1A
0>
0U
0T
0#
1%
0"
0<
0;
0+
0*
#380000
0!
07
0[
#390000
1!
17
1[
1_
0a
1c
1e
1X
1Y
0Z
1W
0]
0^
0d
1i
1j
1k
1l
1?
1@
0A
1>
1V
1U
1T
1S
1#
1$
0%
1"
1=
1<
1;
1:
1,
1+
1*
1)
#400000
0!
07
0[
#410000
1!
17
1[
0_
0e
0X
0W
1^
1`
0b
1d
1f
0k
0l
0?
0>
0V
0U
1P
0#
0"
0=
0<
16
0,
0+
1&
#420000
0!
07
0[
#430000
1!
17
1[
1a
0c
1e
1X
0Y
1Z
1b
0d
0f
0j
1?
0@
1A
0T
0P
1#
0$
1%
0;
06
0*
0&
#440000
0!
07
0[
#450000
1!
17
1[
1c
0e
0X
1Y
1\
1d
1g
1h
0i
1l
0?
1@
1V
0S
1R
1Q
0#
1$
1=
0:
19
18
1,
0)
1(
1'
#460000
0!
07
0[
#470000
1!
17
1[
1e
1X
1]
0^
0`
0d
0l
1?
0V
1#
0=
0,
#480000
0!
07
0[
#490000
1!
17
1[
1_
0a
0e
0X
0Z
1W
0]
0\
1^
1`
0b
0h
1j
0?
0A
1>
1T
0R
0#
0%
1"
1;
09
1*
0(
#500000
0!
07
0[
#510000
1!
17
1[
1a
0c
0Y
1Z
1]
1d
0g
0@
1A
0Q
0$
1%
08
0'
#520000
0!
07
0[
#530000
1!
17
1[
1e
1X
0]
1b
0d
1f
1g
0j
1?
0T
1Q
1P
1#
0;
18
16
0*
1'
1&
#540000
0!
07
0[
#550000
1!
17
1[
1c
0e
0X
1Y
1\
1d
0g
1k
0?
1@
1U
0Q
0#
1$
1<
08
1+
0'
#560000
0!
07
0[
#570000
1!
17
1[
1e
1X
1]
0^
0`
0b
0f
1g
1h
1i
0k
1?
0U
1S
1R
1Q
0P
1#
0<
1:
19
18
06
0+
1)
1(
1'
0&
#580000
0!
07
0[
#590000
1!
17
1[
0_
0a
0c
0Y
0Z
0W
0\
1b
0g
0i
1k
0@
0A
0>
1U
0S
0Q
0]
0$
0%
0"
1<
0:
08
1+
0)
0'
#600000
0!
07
0[
#610000
1!
17
1[
1c
1Y
0b
0d
1g
0h
0k
1@
0U
0R
1Q
1$
0<
09
18
0+
0(
1'
#620000
0!
07
0[
#630000
1!
17
1[
0c
0e
0X
0Y
1]
1^
0g
1l
0?
0@
1V
0Q
0#
0$
1=
08
1,
0'
#640000
0!
07
0[
#650000
1!
17
1[
1_
1W
1d
1f
1i
1j
1k
1>
1U
1T
1S
1P
1"
1<
1;
1:
16
1+
1*
1)
1&
#660000
0!
07
0[
#670000
1!
17
1[
1e
1X
0]
0^
1`
0d
0f
0i
0l
1?
0V
0S
0P
1#
0=
0:
06
0,
0)
0&
#680000
0!
07
0[
#690000
1!
17
1[
0_
1a
0e
0X
1Z
0W
1]
1^
0`
1b
1d
0j
0k
0?
1A
0>
0U
0T
0#
1%
0"
0<
0;
0+
0*
#700000
0!
07
0[
#710000
1!
17
1[
1_
0a
1c
1e
1X
1Y
0Z
1W
0]
0^
0d
1i
1j
1k
1l
1?
1@
0A
1>
1V
1U
1T
1S
1#
1$
0%
1"
1=
1<
1;
1:
1,
1+
1*
1)
#720000
0!
07
0[
#730000
1!
17
1[
0_
0e
0X
0W
1^
1`
0b
1d
1f
0k
0l
0?
0>
0V
0U
1P
0#
0"
0=
0<
16
0,
0+
1&
#740000
0!
07
0[
#750000
1!
17
1[
1a
0c
1e
1X
0Y
1Z
1b
0d
0f
0j
1?
0@
1A
0T
0P
1#
0$
1%
0;
06
0*
0&
#760000
0!
07
0[
#770000
1!
17
1[
1c
0e
0X
1Y
1\
1d
1g
1h
0i
1l
0?
1@
1V
0S
1R
1Q
0#
1$
1=
0:
19
18
1,
0)
1(
1'
#780000
0!
07
0[
#790000
1!
17
1[
1e
1X
1]
0^
0`
0d
0l
1?
0V
1#
0=
0,
#800000
0!
07
0[
#810000
1!
17
1[
1_
0a
0e
0X
0Z
1W
0]
0\
1^
1`
0b
0h
1j
0?
0A
1>
1T
0R
0#
0%
1"
1;
09
1*
0(
#820000
0!
07
0[
#830000
1!
17
1[
1a
0c
0Y
1Z
1]
1d
0g
0@
1A
0Q
0$
1%
08
0'
#840000
0!
07
0[
#850000
1!
17
1[
1e
1X
0]
1b
0d
1f
1g
0j
1?
0T
1Q
1P
1#
0;
18
16
0*
1'
1&
#860000
0!
07
0[
#870000
1!
17
1[
1c
0e
0X
1Y
1\
1d
0g
1k
0?
1@
1U
0Q
0#
1$
1<
08
1+
0'
#880000
0!
07
0[
#890000
1!
17
1[
1e
1X
1]
0^
0`
0b
0f
1g
1h
1i
0k
1?
0U
1S
1R
1Q
0P
1#
0<
1:
19
18
06
0+
1)
1(
1'
0&
#900000
0!
07
0[
#910000
1!
17
1[
0_
0a
0c
0Y
0Z
0W
0\
1b
0g
0i
1k
0@
0A
0>
1U
0S
0Q
0]
0$
0%
0"
1<
0:
08
1+
0)
0'
#920000
0!
07
0[
#930000
1!
17
1[
1c
1Y
0b
0d
1g
0h
0k
1@
0U
0R
1Q
1$
0<
09
18
0+
0(
1'
#940000
0!
07
0[
#950000
1!
17
1[
0c
0e
0X
0Y
1]
1^
0g
1l
0?
0@
1V
0Q
0#
0$
1=
08
1,
0'
#960000
0!
07
0[
#970000
1!
17
1[
1_
1W
1d
1f
1i
1j
1k
1>
1U
1T
1S
1P
1"
1<
1;
1:
16
1+
1*
1)
1&
#980000
0!
07
0[
#990000
1!
17
1[
1e
1X
0]
0^
1`
0d
0f
0i
0l
1?
0V
0S
0P
1#
0=
0:
06
0,
0)
0&
