PROVA/simulation/qsim/PROVA.msim.vcd
$comment
	File created using the following command:
		vcd file PROVA.msim.vcd -direction
$end
$date
	Wed Jun 04 12:45:40 2025
$end
$version
	ModelSim Version 10.5b
$end
$timescale
	1ps
$end

$scope module PROVA_vlg_vec_tst $end
$var reg 1 ! clear $end
$var reg 1 " clk $end
$var reg 1 # J $end
$var reg 1 $ K $end
$var reg 1 % PRES $end
$var wire 1 & out $end

$scope module i1 $end
$var wire 1 ' gnd $end
$var wire 1 ( vcc $end
$var wire 1 ) unknown $end
$var tri1 1 * devclrn $end
$var tri1 1 + devpor $end
$var tri1 1 , devoe $end
$var wire 1 - ~QUARTUS_CREATED_GND~I_combout $end
$var wire 1 . ~QUARTUS_CREATED_UNVM~~busy $end
$var wire 1 / ~QUARTUS_CREATED_ADC1~~eoc $end
$var wire 1 0 ~QUARTUS_CREATED_ADC2~~eoc $end
$var wire 1 1 out~output_o $end
$var wire 1 2 PRES~input_o $end
$var wire 1 3 clear~input_o $end
$var wire 1 4 inst~1_combout $end
$var wire 1 5 clk~input_o $end
$var wire 1 6 J~input_o $end
$var wire 1 7 K~input_o $end
$var wire 1 8 inst~3_combout $end
$var wire 1 9 inst~0_combout $end
$var wire 1 : inst~_emulated_q $end
$var wire 1 ; inst~2_combout $end
$upscope $end
$upscope $end
$enddefinitions $end
#0
$dumpvars
0!
0"
1#
0$
0%
0&
0'
1(
x)
1*
1+
1,
0-
z.
z/
z0
01
02
03
04
05
16
07
18
19
0:
0;
$end
#5000
1"
15
#10000
0"
05
#15000
1"
15
#20000
0"
05
#25000
1"
15
#30000
0"
05
#35000
1"
15
#40000
0"
05
#45000
1"
15
#50000
0"
05
#55000
1"
15
#60000
0"
05
#65000
1"
15
#70000
0"
05
#75000
1"
15
#80000
0"
05
#85000
1"
15
#90000
0"
05
#95000
1"
15
#100000
0"
05
#105000
1"
15
#110000
0"
05
#115000
1"
15
#120000
0"
05
#125000
1"
15
#130000
0"
05
#135000
1"
15
#140000
0"
05
#145000
1"
15
#150000
0"
05
#155000
1"
15
#160000
0"
05
#165000
1"
15
#170000
0"
05
#175000
1"
15
#180000
0"
05
#185000
1"
15
#190000
0"
05
#195000
1"
15
#200000
0"
05
#205000
1"
15
#210000
0"
05
#215000
1"
15
#220000
0"
05
#225000
1"
15
#230000
0"
05
#235000
1"
15
#240000
0"
05
#245000
1"
15
#250000
0"
05
#255000
1"
15
#260000
0"
05
#265000
1"
15
#270000
0"
05
#275000
1"
15
#280000
0"
05
#285000
1"
15
#290000
0"
05
#295000
1"
15
#300000
0"
05
#305000
1"
15
#310000
0"
05
#315000
1"
15
#320000
0"
05
#325000
1"
15
#330000
0"
05
#335000
1"
15
#340000
0"
05
#345000
1"
15
#350000
0"
05
#355000
1"
15
#360000
0"
05
#365000
1"
15
#370000
0"
05
#375000
1"
15
#380000
0"
05
#385000
1"
15
#390000
0"
05
#395000
1"
15
#400000
0"
05
#405000
1"
15
#410000
0"
05
#415000
1"
15
#420000
0"
05
#425000
1"
15
#430000
0"
05
#435000
1"
15
#440000
0"
05
#445000
1"
15
#450000
0"
05
#455000
1"
15
#460000
0"
05
#465000
1"
15
#470000
0"
05
#475000
1"
15
#480000
0"
05
#485000
1"
15
#490000
0"
05
#495000
1"
15
#500000
0"
05
#505000
1"
15
#510000
0"
05
#515000
1"
15
#520000
0"
05
#525000
1"
15
#530000
0"
05
#535000
1"
15
#540000
0"
05
#545000
1"
15
#550000
0"
05
#555000
1"
15
#560000
0"
05
#565000
1"
15
#570000
0"
05
#575000
1"
15
#580000
0"
05
#585000
1"
15
#590000
0"
05
#595000
1"
15
#600000
0"
05
#605000
1"
15
#610000
0"
05
#615000
1"
15
#620000
0"
05
#625000
1"
15
#630000
0"
05
#635000
1"
15
#640000
0"
05
#645000
1"
15
#650000
0"
05
#655000
1"
15
#660000
0"
05
#665000
1"
15
#670000
0"
05
#675000
1"
15
#680000
0"
05
#685000
1"
15
#690000
0"
05
#695000
1"
15
#700000
0"
05
#705000
1"
15
#710000
0"
05
#715000
1"
15
#720000
0"
05
#725000
1"
15
#730000
0"
05
#735000
1"
15
#740000
0"
05
#745000
1"
15
#750000
0"
05
#755000
1"
15
#760000
0"
05
#765000
1"
15
#770000
0"
05
#775000
1"
15
#780000
0"
05
#785000
1"
15
#790000
0"
05
#795000
1"
15
#800000
0"
05
#805000
1"
15
#810000
0"
05
#815000
1"
15
#820000
0"
05
#825000
1"
15
#830000
0"
05
#835000
1"
15
#840000
0"
05
#845000
1"
15
#850000
0"
05
#855000
1"
15
#860000
0"
05
#865000
1"
15
#870000
0"
05
#875000
1"
15
#880000
0"
05
#885000
1"
15
#890000
0"
05
#895000
1"
15
#900000
0"
05
#905000
1"
15
#910000
0"
05
#915000
1"
15
#920000
0"
05
#925000
1"
15
#930000
0"
05
#935000
1"
15
#940000
0"
05
#945000
1"
15
#950000
0"
05
#955000
1"
15
#960000
0"
05
#965000
1"
15
#970000
0"
05
#975000
1"
15
#980000
0"
05
#985000
1"
15
#990000
0"
05
#995000
1"
15
