LAB06/simulation/qsim/DETECTORDESEQUENCIA.msim.vcd
$comment
	File created using the following command:
		vcd file DETECTORDESEQUENCIA.msim.vcd -direction
$end
$date
	Wed Jun 04 17:15:00 2025
$end
$version
	ModelSim Version 10.5b
$end
$timescale
	1ps
$end

$scope module detectordesequencia_top_vhd_vec_tst $end
$var wire 1 ! clk $end
$var wire 1 " Hex_out [6] $end
$var wire 1 # Hex_out [5] $end
$var wire 1 $ Hex_out [4] $end
$var wire 1 % Hex_out [3] $end
$var wire 1 & Hex_out [2] $end
$var wire 1 ' Hex_out [1] $end
$var wire 1 ( Hex_out [0] $end
$var wire 1 ) led_chave0 $end
$var wire 1 * led_seqdetectada $end
$var wire 1 + M0 $end
$var wire 1 , M1 $end
$var wire 1 - Q0_out $end
$var wire 1 . Q1_out $end
$var wire 1 / Q2_out $end

$scope module i1 $end
$var wire 1 0 gnd $end
$var wire 1 1 vcc $end
$var wire 1 2 unknown $end
$var wire 1 3 devoe $end
$var wire 1 4 devclrn $end
$var wire 1 5 devpor $end
$var wire 1 6 ww_devoe $end
$var wire 1 7 ww_devclrn $end
$var wire 1 8 ww_devpor $end
$var wire 1 9 ww_clk $end
$var wire 1 : ww_M0 $end
$var wire 1 ; ww_M1 $end
$var wire 1 < ww_led_chave0 $end
$var wire 1 = ww_led_seqdetectada $end
$var wire 1 > ww_Q0_out $end
$var wire 1 ? ww_Q1_out $end
$var wire 1 @ ww_Q2_out $end
$var wire 1 A ww_Hex_out [6] $end
$var wire 1 B ww_Hex_out [5] $end
$var wire 1 C ww_Hex_out [4] $end
$var wire 1 D ww_Hex_out [3] $end
$var wire 1 E ww_Hex_out [2] $end
$var wire 1 F ww_Hex_out [1] $end
$var wire 1 G ww_Hex_out [0] $end
$var wire 1 H \~QUARTUS_CREATED_ADC1~_CHSEL_bus\ [4] $end
$var wire 1 I \~QUARTUS_CREATED_ADC1~_CHSEL_bus\ [3] $end
$var wire 1 J \~QUARTUS_CREATED_ADC1~_CHSEL_bus\ [2] $end
$var wire 1 K \~QUARTUS_CREATED_ADC1~_CHSEL_bus\ [1] $end
$var wire 1 L \~QUARTUS_CREATED_ADC1~_CHSEL_bus\ [0] $end
$var wire 1 M \~QUARTUS_CREATED_ADC2~_CHSEL_bus\ [4] $end
$var wire 1 N \~QUARTUS_CREATED_ADC2~_CHSEL_bus\ [3] $end
$var wire 1 O \~QUARTUS_CREATED_ADC2~_CHSEL_bus\ [2] $end
$var wire 1 P \~QUARTUS_CREATED_ADC2~_CHSEL_bus\ [1] $end
$var wire 1 Q \~QUARTUS_CREATED_ADC2~_CHSEL_bus\ [0] $end
$var wire 1 R \M1~input_o\ $end
$var wire 1 S \~QUARTUS_CREATED_GND~I_combout\ $end
$var wire 1 T \~QUARTUS_CREATED_UNVM~~busy\ $end
$var wire 1 U \~QUARTUS_CREATED_ADC1~~eoc\ $end
$var wire 1 V \~QUARTUS_CREATED_ADC2~~eoc\ $end
$var wire 1 W \led_chave0~output_o\ $end
$var wire 1 X \led_seqdetectada~output_o\ $end
$var wire 1 Y \Q0_out~output_o\ $end
$var wire 1 Z \Q1_out~output_o\ $end
$var wire 1 [ \Q2_out~output_o\ $end
$var wire 1 \ \Hex_out[0]~output_o\ $end
$var wire 1 ] \Hex_out[1]~output_o\ $end
$var wire 1 ^ \Hex_out[2]~output_o\ $end
$var wire 1 _ \Hex_out[3]~output_o\ $end
$var wire 1 ` \Hex_out[4]~output_o\ $end
$var wire 1 a \Hex_out[5]~output_o\ $end
$var wire 1 b \Hex_out[6]~output_o\ $end
$var wire 1 c \M0~input_o\ $end
$var wire 1 d \clk~input_o\ $end
$var wire 1 e \ffjk0|Q_reg~0_combout\ $end
$var wire 1 f \ffjk0|Q_reg~q\ $end
$var wire 1 g \ffjk2|Q_reg~0_combout\ $end
$var wire 1 h \ffjk2|Q_reg~q\ $end
$var wire 1 i \ffjk1|Q_reg~0_combout\ $end
$var wire 1 j \ffjk1|Q_reg~q\ $end
$var wire 1 k \process_0~0_combout\ $end
$var wire 1 l \led7seg|S0~0_combout\ $end
$var wire 1 m \led7seg|S1~0_combout\ $end
$var wire 1 n \led7seg|S2~0_combout\ $end
$var wire 1 o \led7seg|S3~0_combout\ $end
$var wire 1 p \led7seg|S4~combout\ $end
$var wire 1 q \led7seg|S5~0_combout\ $end
$var wire 1 r \led7seg|S6~combout\ $end
$var wire 1 s \led7seg|ALT_INV_S1~0_combout\ $end
$var wire 1 t \led7seg|ALT_INV_S0~0_combout\ $end
$upscope $end
$upscope $end
$enddefinitions $end
#0
$dumpvars
0!
1)
0*
1+
1,
0-
0.
0/
00
11
x2
13
14
15
16
17
18
09
1:
1;
1<
0=
0>
0?
0@
1R
0S
zT
zU
zV
1W
0X
0Y
0Z
0[
0\
0]
0^
0_
0`
0a
1b
1c
0d
1e
0f
0g
0h
0i
0j
0k
1l
1m
0n
0o
0p
0q
1r
0s
0t
1A
0B
0C
0D
0E
0F
0G
0H
0I
0J
0K
0L
0M
0N
0O
0P
0Q
1"
0#
0$
0%
0&
0'
0(
$end
#5000
1!
19
1d
1f
1Y
1i
0l
1o
1p
1q
1t
1>
1a
1`
1_
1-
1\
1B
1C
1D
1G
1%
1$
1#
1(
#10000
0!
09
0d
#15000
1!
19
1d
1j
1Z
0e
1l
0o
0r
0t
1?
0b
0_
1.
0\
0A
0D
0G
0%
0"
0(
#20000
0!
09
0d
#25000
1!
19
1d
0f
0Y
1g
1n
0p
0>
0`
1^
0-
0C
1E
1&
0$
#30000
0!
09
0d
#35000
1!
19
1d
1h
1[
1e
0m
0n
0q
1s
1@
0a
0^
1/
1]
0B
0E
1F
0&
0#
1'
#40000
0!
09
0d
#45000
1!
19
1d
1f
1Y
0i
1k
1m
1o
1p
1q
1r
0s
1>
1b
1a
1`
1_
1X
1-
0]
1A
1B
1C
1D
1=
0F
1%
1$
1#
1"
1*
0'
#50000
0!
09
0d
#55000
1!
19
1d
0j
0Z
0e
0k
0m
0o
0q
0r
1s
0?
0b
0a
0_
0X
0.
1]
0A
0B
0D
0=
1F
0%
0#
0"
0*
1'
#60000
0!
09
0d
#65000
1!
19
1d
0f
0Y
0g
0l
1m
1o
0s
1t
0>
1_
0-
1\
0]
1D
1G
0F
1%
1(
0'
#70000
0!
09
0d
#75000
1!
19
1d
0h
0[
1e
1l
0o
0p
1r
0t
0@
1b
0`
0_
0/
0\
1A
0C
0D
0G
0%
0$
1"
0(
#80000
0!
09
0d
#85000
1!
19
1d
1f
1Y
1i
0l
1o
1p
1q
1t
1>
1a
1`
1_
1-
1\
1B
1C
1D
1G
1%
1$
1#
1(
#90000
0!
09
0d
#95000
1!
19
1d
1j
1Z
0e
1l
0o
0r
0t
1?
0b
0_
1.
0\
0A
0D
0G
0%
0"
0(
#100000
0!
09
0d
#105000
1!
19
1d
0f
0Y
1g
1n
0p
0>
0`
1^
0-
0C
1E
1&
0$
#110000
0!
09
0d
#115000
1!
19
1d
1h
1[
1e
0m
0n
0q
1s
1@
0a
0^
1/
1]
0B
0E
1F
0&
0#
1'
#120000
0!
09
0d
#125000
1!
19
1d
1f
1Y
0i
1k
1m
1o
1p
1q
1r
0s
1>
1b
1a
1`
1_
1X
1-
0]
1A
1B
1C
1D
1=
0F
1%
1$
1#
1"
1*
0'
#130000
0!
09
0d
#135000
1!
19
1d
0j
0Z
0e
0k
0m
0o
0q
0r
1s
0?
0b
0a
0_
0X
0.
1]
0A
0B
0D
0=
1F
0%
0#
0"
0*
1'
#140000
0!
09
0d
#145000
1!
19
1d
0f
0Y
0g
0l
1m
1o
0s
1t
0>
1_
0-
1\
0]
1D
1G
0F
1%
1(
0'
#150000
0!
09
0d
#155000
1!
19
1d
0h
0[
1e
1l
0o
0p
1r
0t
0@
1b
0`
0_
0/
0\
1A
0C
0D
0G
0%
0$
1"
0(
#160000
0!
09
0d
#165000
1!
19
1d
1f
1Y
1i
0l
1o
1p
1q
1t
1>
1a
1`
1_
1-
1\
1B
1C
1D
1G
1%
1$
1#
1(
#170000
0!
09
0d
#175000
1!
19
1d
1j
1Z
0e
1l
0o
0r
0t
1?
0b
0_
1.
0\
0A
0D
0G
0%
0"
0(
#180000
0!
09
0d
#185000
1!
19
1d
0f
0Y
1g
1n
0p
0>
0`
1^
0-
0C
1E
1&
0$
#190000
0!
09
0d
#195000
1!
19
1d
1h
1[
1e
0m
0n
0q
1s
1@
0a
0^
1/
1]
0B
0E
1F
0&
0#
1'
#200000
0!
09
0d
#205000
1!
19
1d
1f
1Y
0i
1k
1m
1o
1p
1q
1r
0s
1>
1b
1a
1`
1_
1X
1-
0]
1A
1B
1C
1D
1=
0F
1%
1$
1#
1"
1*
0'
#210000
0!
09
0d
#215000
1!
19
1d
0j
0Z
0e
0k
0m
0o
0q
0r
1s
0?
0b
0a
0_
0X
0.
1]
0A
0B
0D
0=
1F
0%
0#
0"
0*
1'
#220000
0!
09
0d
#225000
1!
19
1d
0f
0Y
0g
0l
1m
1o
0s
1t
0>
1_
0-
1\
0]
1D
1G
0F
1%
1(
0'
#230000
0!
09
0d
#235000
1!
19
1d
0h
0[
1e
1l
0o
0p
1r
0t
0@
1b
0`
0_
0/
0\
1A
0C
0D
0G
0%
0$
1"
0(
#240000
0!
09
0d
#245000
1!
19
1d
1f
1Y
1i
0l
1o
1p
1q
1t
1>
1a
1`
1_
1-
1\
1B
1C
1D
1G
1%
1$
1#
1(
#250000
0!
09
0d
#255000
1!
19
1d
1j
1Z
0e
1l
0o
0r
0t
1?
0b
0_
1.
0\
0A
0D
0G
0%
0"
0(
#260000
0!
09
0d
#265000
1!
19
1d
0f
0Y
1g
1n
0p
0>
0`
1^
0-
0C
1E
1&
0$
#270000
0!
09
0d
#275000
1!
19
1d
1h
1[
1e
0m
0n
0q
1s
1@
0a
0^
1/
1]
0B
0E
1F
0&
0#
1'
#280000
0!
09
0d
#285000
1!
19
1d
1f
1Y
0i
1k
1m
1o
1p
1q
1r
0s
1>
1b
1a
1`
1_
1X
1-
0]
1A
1B
1C
1D
1=
0F
1%
1$
1#
1"
1*
0'
#290000
0!
09
0d
#295000
1!
19
1d
0j
0Z
0e
0k
0m
0o
0q
0r
1s
0?
0b
0a
0_
0X
0.
1]
0A
0B
0D
0=
1F
0%
0#
0"
0*
1'
#300000
0!
09
0d
#305000
1!
19
1d
0f
0Y
0g
0l
1m
1o
0s
1t
0>
1_
0-
1\
0]
1D
1G
0F
1%
1(
0'
#310000
0!
09
0d
#315000
1!
19
1d
0h
0[
1e
1l
0o
0p
1r
0t
0@
1b
0`
0_
0/
0\
1A
0C
0D
0G
0%
0$
1"
0(
#320000
0!
09
0d
#325000
1!
19
1d
1f
1Y
1i
0l
1o
1p
1q
1t
1>
1a
1`
1_
1-
1\
1B
1C
1D
1G
1%
1$
1#
1(
#330000
0!
09
0d
#335000
1!
19
1d
1j
1Z
0e
1l
0o
0r
0t
1?
0b
0_
1.
0\
0A
0D
0G
0%
0"
0(
#340000
0!
09
0d
#345000
1!
19
1d
0f
0Y
1g
1n
0p
0>
0`
1^
0-
0C
1E
1&
0$
#350000
0!
09
0d
#355000
1!
19
1d
1h
1[
1e
0m
0n
0q
1s
1@
0a
0^
1/
1]
0B
0E
1F
0&
0#
1'
#360000
0!
09
0d
#365000
1!
19
1d
1f
1Y
0i
1k
1m
1o
1p
1q
1r
0s
1>
1b
1a
1`
1_
1X
1-
0]
1A
1B
1C
1D
1=
0F
1%
1$
1#
1"
1*
0'
#370000
0!
09
0d
#375000
1!
19
1d
0j
0Z
0e
0k
0m
0o
0q
0r
1s
0?
0b
0a
0_
0X
0.
1]
0A
0B
0D
0=
1F
0%
0#
0"
0*
1'
#380000
0!
09
0d
#385000
1!
19
1d
0f
0Y
0g
0l
1m
1o
0s
1t
0>
1_
0-
1\
0]
1D
1G
0F
1%
1(
0'
#390000
0!
09
0d
#395000
1!
19
1d
0h
0[
1e
1l
0o
0p
1r
0t
0@
1b
0`
0_
0/
0\
1A
0C
0D
0G
0%
0$
1"
0(
#400000
0!
09
0d
#405000
1!
19
1d
1f
1Y
1i
0l
1o
1p
1q
1t
1>
1a
1`
1_
1-
1\
1B
1C
1D
1G
1%
1$
1#
1(
#410000
0!
09
0d
#415000
1!
19
1d
1j
1Z
0e
1l
0o
0r
0t
1?
0b
0_
1.
0\
0A
0D
0G
0%
0"
0(
#420000
0!
09
0d
#425000
1!
19
1d
0f
0Y
1g
1n
0p
0>
0`
1^
0-
0C
1E
1&
0$
#430000
0!
09
0d
#435000
1!
19
1d
1h
1[
1e
0m
0n
0q
1s
1@
0a
0^
1/
1]
0B
0E
1F
0&
0#
1'
#440000
0!
09
0d
#445000
1!
19
1d
1f
1Y
0i
1k
1m
1o
1p
1q
1r
0s
1>
1b
1a
1`
1_
1X
1-
0]
1A
1B
1C
1D
1=
0F
1%
1$
1#
1"
1*
0'
#450000
0!
09
0d
#455000
1!
19
1d
0j
0Z
0e
0k
0m
0o
0q
0r
1s
0?
0b
0a
0_
0X
0.
1]
0A
0B
0D
0=
1F
0%
0#
0"
0*
1'
#460000
0!
09
0d
#465000
1!
19
1d
0f
0Y
0g
0l
1m
1o
0s
1t
0>
1_
0-
1\
0]
1D
1G
0F
1%
1(
0'
#470000
0!
09
0d
#475000
1!
19
1d
0h
0[
1e
1l
0o
0p
1r
0t
0@
1b
0`
0_
0/
0\
1A
0C
0D
0G
0%
0$
1"
0(
#480000
0!
09
0d
#485000
1!
19
1d
1f
1Y
1i
0l
1o
1p
1q
1t
1>
1a
1`
1_
1-
1\
1B
1C
1D
1G
1%
1$
1#
1(
#490000
0!
09
0d
#495000
1!
19
1d
1j
1Z
0e
1l
0o
0r
0t
1?
0b
0_
1.
0\
0A
0D
0G
0%
0"
0(
#500000
0!
09
0d
#505000
1!
19
1d
0f
0Y
1g
1n
0p
0>
0`
1^
0-
0C
1E
1&
0$
#510000
0!
09
0d
#515000
1!
19
1d
1h
1[
1e
0m
0n
0q
1s
1@
0a
0^
1/
1]
0B
0E
1F
0&
0#
1'
#520000
0!
09
0d
#525000
1!
19
1d
1f
1Y
0i
1k
1m
1o
1p
1q
1r
0s
1>
1b
1a
1`
1_
1X
1-
0]
1A
1B
1C
1D
1=
0F
1%
1$
1#
1"
1*
0'
#530000
0!
09
0d
#535000
1!
19
1d
0j
0Z
0e
0k
0m
0o
0q
0r
1s
0?
0b
0a
0_
0X
0.
1]
0A
0B
0D
0=
1F
0%
0#
0"
0*
1'
#540000
0!
09
0d
#545000
1!
19
1d
0f
0Y
0g
0l
1m
1o
0s
1t
0>
1_
0-
1\
0]
1D
1G
0F
1%
1(
0'
#550000
0!
09
0d
#555000
1!
19
1d
0h
0[
1e
1l
0o
0p
1r
0t
0@
1b
0`
0_
0/
0\
1A
0C
0D
0G
0%
0$
1"
0(
#560000
0!
09
0d
#565000
1!
19
1d
1f
1Y
1i
0l
1o
1p
1q
1t
1>
1a
1`
1_
1-
1\
1B
1C
1D
1G
1%
1$
1#
1(
#570000
0!
09
0d
#575000
1!
19
1d
1j
1Z
0e
1l
0o
0r
0t
1?
0b
0_
1.
0\
0A
0D
0G
0%
0"
0(
#580000
0!
09
0d
#585000
1!
19
1d
0f
0Y
1g
1n
0p
0>
0`
1^
0-
0C
1E
1&
0$
#590000
0!
09
0d
#595000
1!
19
1d
1h
1[
1e
0m
0n
0q
1s
1@
0a
0^
1/
1]
0B
0E
1F
0&
0#
1'
#600000
0!
09
0d
#605000
1!
19
1d
1f
1Y
0i
1k
1m
1o
1p
1q
1r
0s
1>
1b
1a
1`
1_
1X
1-
0]
1A
1B
1C
1D
1=
0F
1%
1$
1#
1"
1*
0'
#610000
0!
09
0d
#615000
1!
19
1d
0j
0Z
0e
0k
0m
0o
0q
0r
1s
0?
0b
0a
0_
0X
0.
1]
0A
0B
0D
0=
1F
0%
0#
0"
0*
1'
#620000
0!
09
0d
#625000
1!
19
1d
0f
0Y
0g
0l
1m
1o
0s
1t
0>
1_
0-
1\
0]
1D
1G
0F
1%
1(
0'
#630000
0!
09
0d
#635000
1!
19
1d
0h
0[
1e
1l
0o
0p
1r
0t
0@
1b
0`
0_
0/
0\
1A
0C
0D
0G
0%
0$
1"
0(
#640000
0!
09
0d
#645000
1!
19
1d
1f
1Y
1i
0l
1o
1p
1q
1t
1>
1a
1`
1_
1-
1\
1B
1C
1D
1G
1%
1$
1#
1(
#650000
0!
09
0d
#655000
1!
19
1d
1j
1Z
0e
1l
0o
0r
0t
1?
0b
0_
1.
0\
0A
0D
0G
0%
0"
0(
#660000
0!
09
0d
#665000
1!
19
1d
0f
0Y
1g
1n
0p
0>
0`
1^
0-
0C
1E
1&
0$
#670000
0!
09
0d
#675000
1!
19
1d
1h
1[
1e
0m
0n
0q
1s
1@
0a
0^
1/
1]
0B
0E
1F
0&
0#
1'
#680000
0!
09
0d
#685000
1!
19
1d
1f
1Y
0i
1k
1m
1o
1p
1q
1r
0s
1>
1b
1a
1`
1_
1X
1-
0]
1A
1B
1C
1D
1=
0F
1%
1$
1#
1"
1*
0'
#690000
0!
09
0d
#695000
1!
19
1d
0j
0Z
0e
0k
0m
0o
0q
0r
1s
0?
0b
0a
0_
0X
0.
1]
0A
0B
0D
0=
1F
0%
0#
0"
0*
1'
#700000
0!
09
0d
#705000
1!
19
1d
0f
0Y
0g
0l
1m
1o
0s
1t
0>
1_
0-
1\
0]
1D
1G
0F
1%
1(
0'
#710000
0!
09
0d
#715000
1!
19
1d
0h
0[
1e
1l
0o
0p
1r
0t
0@
1b
0`
0_
0/
0\
1A
0C
0D
0G
0%
0$
1"
0(
#720000
0!
09
0d
#725000
1!
19
1d
1f
1Y
1i
0l
1o
1p
1q
1t
1>
1a
1`
1_
1-
1\
1B
1C
1D
1G
1%
1$
1#
1(
#730000
0!
09
0d
#735000
1!
19
1d
1j
1Z
0e
1l
0o
0r
0t
1?
0b
0_
1.
0\
0A
0D
0G
0%
0"
0(
#740000
0!
09
0d
#745000
1!
19
1d
0f
0Y
1g
1n
0p
0>
0`
1^
0-
0C
1E
1&
0$
#750000
0!
09
0d
#755000
1!
19
1d
1h
1[
1e
0m
0n
0q
1s
1@
0a
0^
1/
1]
0B
0E
1F
0&
0#
1'
#760000
0!
09
0d
#765000
1!
19
1d
1f
1Y
0i
1k
1m
1o
1p
1q
1r
0s
1>
1b
1a
1`
1_
1X
1-
0]
1A
1B
1C
1D
1=
0F
1%
1$
1#
1"
1*
0'
#770000
0!
09
0d
#775000
1!
19
1d
0j
0Z
0e
0k
0m
0o
0q
0r
1s
0?
0b
0a
0_
0X
0.
1]
0A
0B
0D
0=
1F
0%
0#
0"
0*
1'
#780000
0!
09
0d
#785000
1!
19
1d
0f
0Y
0g
0l
1m
1o
0s
1t
0>
1_
0-
1\
0]
1D
1G
0F
1%
1(
0'
#790000
0!
09
0d
#795000
1!
19
1d
0h
0[
1e
1l
0o
0p
1r
0t
0@
1b
0`
0_
0/
0\
1A
0C
0D
0G
0%
0$
1"
0(
#800000
0!
09
0d
#805000
1!
19
1d
1f
1Y
1i
0l
1o
1p
1q
1t
1>
1a
1`
1_
1-
1\
1B
1C
1D
1G
1%
1$
1#
1(
#810000
0!
09
0d
#815000
1!
19
1d
1j
1Z
0e
1l
0o
0r
0t
1?
0b
0_
1.
0\
0A
0D
0G
0%
0"
0(
#820000
0!
09
0d
#825000
1!
19
1d
0f
0Y
1g
1n
0p
0>
0`
1^
0-
0C
1E
1&
0$
#830000
0!
09
0d
#835000
1!
19
1d
1h
1[
1e
0m
0n
0q
1s
1@
0a
0^
1/
1]
0B
0E
1F
0&
0#
1'
#840000
0!
09
0d
#845000
1!
19
1d
1f
1Y
0i
1k
1m
1o
1p
1q
1r
0s
1>
1b
1a
1`
1_
1X
1-
0]
1A
1B
1C
1D
1=
0F
1%
1$
1#
1"
1*
0'
#850000
0!
09
0d
#855000
1!
19
1d
0j
0Z
0e
0k
0m
0o
0q
0r
1s
0?
0b
0a
0_
0X
0.
1]
0A
0B
0D
0=
1F
0%
0#
0"
0*
1'
#860000
0!
09
0d
#865000
1!
19
1d
0f
0Y
0g
0l
1m
1o
0s
1t
0>
1_
0-
1\
0]
1D
1G
0F
1%
1(
0'
#870000
0!
09
0d
#875000
1!
19
1d
0h
0[
1e
1l
0o
0p
1r
0t
0@
1b
0`
0_
0/
0\
1A
0C
0D
0G
0%
0$
1"
0(
#880000
0!
09
0d
#885000
1!
19
1d
1f
1Y
1i
0l
1o
1p
1q
1t
1>
1a
1`
1_
1-
1\
1B
1C
1D
1G
1%
1$
1#
1(
#890000
0!
09
0d
#895000
1!
19
1d
1j
1Z
0e
1l
0o
0r
0t
1?
0b
0_
1.
0\
0A
0D
0G
0%
0"
0(
#900000
0!
09
0d
#905000
1!
19
1d
0f
0Y
1g
1n
0p
0>
0`
1^
0-
0C
1E
1&
0$
#910000
0!
09
0d
#915000
1!
19
1d
1h
1[
1e
0m
0n
0q
1s
1@
0a
0^
1/
1]
0B
0E
1F
0&
0#
1'
#920000
0!
09
0d
#925000
1!
19
1d
1f
1Y
0i
1k
1m
1o
1p
1q
1r
0s
1>
1b
1a
1`
1_
1X
1-
0]
1A
1B
1C
1D
1=
0F
1%
1$
1#
1"
1*
0'
#930000
0!
09
0d
#935000
1!
19
1d
0j
0Z
0e
0k
0m
0o
0q
0r
1s
0?
0b
0a
0_
0X
0.
1]
0A
0B
0D
0=
1F
0%
0#
0"
0*
1'
#940000
0!
09
0d
#945000
1!
19
1d
0f
0Y
0g
0l
1m
1o
0s
1t
0>
1_
0-
1\
0]
1D
1G
0F
1%
1(
0'
#950000
0!
09
0d
#955000
1!
19
1d
0h
0[
1e
1l
0o
0p
1r
0t
0@
1b
0`
0_
0/
0\
1A
0C
0D
0G
0%
0$
1"
0(
#960000
0!
09
0d
#965000
1!
19
1d
1f
1Y
1i
0l
1o
1p
1q
1t
1>
1a
1`
1_
1-
1\
1B
1C
1D
1G
1%
1$
1#
1(
#970000
0!
09
0d
#975000
1!
19
1d
1j
1Z
0e
1l
0o
0r
0t
1?
0b
0_
1.
0\
0A
0D
0G
0%
0"
0(
#980000
0!
09
0d
#985000
1!
19
1d
0f
0Y
1g
1n
0p
0>
0`
1^
0-
0C
1E
1&
0$
#990000
0!
09
0d
#995000
1!
19
1d
1h
1[
1e
0m
0n
0q
1s
1@
0a
0^
1/
1]
0B
0E
1F
0&
0#
1'
